Name,WeightClassKg,Division,Sex,Best3SquatKg,Best3BenchKg,Best3DeadliftKg,TotalKg,Event,Equipment,Place
M. Axelrod,44,Collegiate,F,90,47.5,107.5,245,SBD,Single-ply,1
Linda Thomas,44,Collegiate,F,80,42.5,107.5,230,SBD,Single-ply,2
Delcy Palk,48,Collegiate,F,107.5,55,115,277.5,SBD,Single-ply,1
T. Berthelol,48,Collegiate,F,97.5,52.5,102.5,252.5,SBD,Single-ply,2
K. Schaffer,48,Collegiate,F,102.5,40,107.5,250,SBD,Single-ply,3
C. Coetzee,48,Collegiate,F,87.5,40,92.5,220,SBD,Single-ply,4
B. Lee,52,Collegiate,F,92.5,50,132.5,275,SBD,Single-ply,1
C. Harris,52,Collegiate,F,105,47.5,122.5,275,SBD,Single-ply,2
L Sikes,52,Collegiate,F,92.5,55,115,262.5,SBD,Single-ply,3
M. Heard,52,Collegiate,F,85,50,115,250,SBD,Single-ply,4
L. Blevins,52,Collegiate,F,90,,82.5,,SBD,Single-ply,DQ
Dee Ann Plato,56,Collegiate,F,122.5,60,145,327.5,SBD,Single-ply,1
Bethanne Lista,56,Collegiate,F,117.5,60,135,312.5,SBD,Single-ply,2
B. Grubb,56,Collegiate,F,127.5,55,127.5,310,SBD,Single-ply,3
T. Agostino,56,Collegiate,F,115,57.5,135,307.5,SBD,Single-ply,4
Jamie Boyer,56,Collegiate,F,107.5,50,142.5,300,SBD,Single-ply,5
R. Williams,56,Collegiate,F,115,57.5,125,297.5,SBD,Single-ply,6
Sean Broze,56,Collegiate,F,95,52.5,125,272.5,SBD,Single-ply,7
Janis Rosenthal,56,Collegiate,F,90,47.5,120,257.5,SBD,Single-ply,8
S. Bardfield,60,Collegiate,F,122.5,55,125,302.5,SBD,Single-ply,1
D. Wellington,60,Collegiate,F,112.5,55,130,297.5,SBD,Single-ply,2
K. Bentley,60,Collegiate,F,115,50,127.5,292.5,SBD,Single-ply,3
K. McVay,60,Collegiate,F,110,55,120,285,SBD,Single-ply,4
T. Sommer,60,Collegiate,F,110,55,120,285,SBD,Single-ply,5
L. Thompson,60,Collegiate,F,92.5,50,100,242.5,SBD,Single-ply,6
M. Raines,67.5,Collegiate,F,145,67.5,172.5,385,SBD,Single-ply,1
S. Smith #11,67.5,Collegiate,F,137.5,72.5,172.5,382.5,SBD,Single-ply,2
J. Melsha,67.5,Collegiate,F,120,67.5,140,327.5,SBD,Single-ply,3
Josie Kozicki,67.5,Collegiate,F,115,60,60,235,SBD,Single-ply,4
M. Yarbrough,75,Collegiate,F,152.5,75,152.5,380,SBD,Single-ply,1
Saramite Tyus,75,Collegiate,F,150,52.5,165,367.5,SBD,Single-ply,2
Kris Stafford,75,Collegiate,F,140,62.5,162.5,365,SBD,Single-ply,3
R. Brown #9,82.5,Collegiate,F,137.5,65,175,377.5,SBD,Single-ply,1
Shavonda Bland,82.5,Collegiate,F,135,60,142.5,337.5,SBD,Single-ply,2
L. Oville,82.5,Collegiate,F,137.5,55,140,332.5,SBD,Single-ply,3
J. Baker,82.5,Collegiate,F,117.5,77.5,137.5,332.5,SBD,Single-ply,4
B. Morgan,90+,Collegiate,F,145,60,147.5,352.5,SBD,Single-ply,1
Phillip Hile,52,Collegiate,M,195,120,205,520,SBD,Single-ply,1
W. Walker,52,Collegiate,M,150,90,170,410,SBD,Single-ply,2
G. Futch,52,Collegiate,M,122.5,92.5,162.5,377.5,SBD,Single-ply,3
Glenn Murphy,52,Collegiate,M,137.5,80,150,367.5,SBD,Single-ply,4
Jeff Ayers,52,Collegiate,M,152.5,92.5,112.5,357.5,SBD,Single-ply,5
M. Mejia,52,Collegiate,M,137.5,72.5,145,355,SBD,Single-ply,6
R. Williams,56,Collegiate,M,147.5,120,187.5,455,SBD,Single-ply,1
E. Frahm,56,Collegiate,M,160,92.5,195,447.5,SBD,Single-ply,2
S. Ryan,56,Collegiate,M,157.5,100,170,427.5,SBD,Single-ply,3
J. Crist,56,Collegiate,M,150,90,180,420,SBD,Single-ply,4
Thayer Spencer,56,Collegiate,M,142.5,97.5,160,400,SBD,Single-ply,5
S. Choi,56,Collegiate,M,140,65,140,345,SBD,Single-ply,6
J. Cunningham,60,Collegiate,M,190,110,190,490,SBD,Single-ply,1
Nestor Romero,60,Collegiate,M,192.5,117.5,180,490,SBD,Single-ply,2
C. Jackson,60,Collegiate,M,182.5,105,192.5,480,SBD,Single-ply,3
West Moses,60,Collegiate,M,167.5,100,202.5,470,SBD,Single-ply,4
J. Zito,60,Collegiate,M,170,105,182.5,457.5,SBD,Single-ply,5
Arthur Herbert,60,Collegiate,M,177.5,110,165,452.5,SBD,Single-ply,6
Ty Stapleton,67.5,Collegiate,M,257.5,177.5,242.5,677.5,SBD,Single-ply,1
D. Jackson,67.5,Collegiate,M,250,142.5,242.5,635,SBD,Single-ply,2
Eric Hammer,67.5,Collegiate,M,230,142.5,217.5,590,SBD,Single-ply,3
S. Spaeder,67.5,Collegiate,M,225,147.5,215,587.5,SBD,Single-ply,4
G. Blevins,67.5,Collegiate,M,217.5,105,240,562.5,SBD,Single-ply,5
J. Welu,67.5,Collegiate,M,205,147.5,197.5,550,SBD,Single-ply,6
R. Williams,67.5,Collegiate,M,200,117.5,222.5,540,SBD,Single-ply,7
M. Jones,67.5,Collegiate,M,212.5,115,210,537.5,SBD,Single-ply,8
Louie Sampedro,67.5,Collegiate,M,197.5,115,210,522.5,SBD,Single-ply,9
G. Rosch,67.5,Collegiate,M,207.5,95,220,522.5,SBD,Single-ply,10
O. James,67.5,Collegiate,M,205,92.5,205,502.5,SBD,Single-ply,11
D. Linehan,67.5,Collegiate,M,165,,,,SBD,Single-ply,DQ
T. Jordan,75,Collegiate,M,245,160,232.5,637.5,SBD,Single-ply,1
S. Beniger,75,Collegiate,M,212.5,162.5,240,615,SBD,Single-ply,2
J. Sinkovits,75,Collegiate,M,217.5,152.5,225,595,SBD,Single-ply,3
M. Colbert,75,Collegiate,M,230,142.5,217.5,590,SBD,Single-ply,4
J. Riley,75,Collegiate,M,202.5,145,225,572.5,SBD,Single-ply,5
Edward Krause,75,Collegiate,M,,120,227.5,,SBD,Single-ply,DQ
W. Short,75,Collegiate,M,202.5,117.5,,,SBD,Single-ply,DQ
J. Croskey,75,Collegiate,M,60,137.5,,,SBD,Single-ply,DQ
Mike Lucci,82.5,Collegiate,M,265,150,257.5,672.5,SBD,Single-ply,1
Ray Ebner,82.5,Collegiate,M,245,157.5,267.5,670,SBD,Single-ply,2
Terry Grisham,82.5,Collegiate,M,245,165,257.5,667.5,SBD,Single-ply,3
R. Ott,82.5,Collegiate,M,230,145,272.5,647.5,SBD,Single-ply,4
G. Clark,82.5,Collegiate,M,247.5,160,237.5,645,SBD,Single-ply,5
M. Barkil,82.5,Collegiate,M,227.5,165,250,642.5,SBD,Single-ply,6
J. Raymer,82.5,Collegiate,M,232.5,150,240,622.5,SBD,Single-ply,7
Richard Ferro,82.5,Collegiate,M,237.5,137.5,240,615,SBD,Single-ply,8
G. Athias,82.5,Collegiate,M,230,130,250,610,SBD,Single-ply,9
L. Geddie,82.5,Collegiate,M,,140,235,,SBD,Single-ply,DQ
D. Klossner,82.5,Collegiate,M,,102.5,217.5,,SBD,Single-ply,DQ
Dave Karam,82.5,Collegiate,M,,175,267.5,,SBD,Single-ply,DQ
Scott Szymanski,90,Collegiate,M,277.5,162.5,287.5,727.5,SBD,Single-ply,1
D. Coston,90,Collegiate,M,282.5,157.5,260,700,SBD,Single-ply,2
K. Hartzell,90,Collegiate,M,222.5,142.5,250,615,SBD,Single-ply,3
Mark Harmon,90,Collegiate,M,,152.5,235,,SBD,Single-ply,DQ
D. Rawlins,90,Collegiate,M,,155,215,,SBD,Single-ply,DQ
Dan Kroesch,90,Collegiate,M,,157.5,247.5,,SBD,Single-ply,DQ
J. Kerwin,100,Collegiate,M,272.5,172.5,272.5,717.5,SBD,Single-ply,1
G. Hutyra,100,Collegiate,M,280,150,262.5,692.5,SBD,Single-ply,2
C. Swatski,100,Collegiate,M,260,152.5,247.5,660,SBD,Single-ply,3
W. Putkowski,100,Collegiate,M,255,137.5,250,642.5,SBD,Single-ply,4
G. Madore,100,Collegiate,M,230,265,,,SBD,Single-ply,DQ
R. Clark #13,110,Collegiate,M,285,202.5,305,792.5,SBD,Single-ply,1
T. Holder,110,Collegiate,M,300,190,260,750,SBD,Single-ply,2
J. Sellers,110,Collegiate,M,272.5,167.5,272.5,712.5,SBD,Single-ply,3
Boyd Stromsdorfer,110,Collegiate,M,250,167.5,292.5,710,SBD,Single-ply,4
G. Madden,110,Collegiate,M,275,187.5,245,707.5,SBD,Single-ply,5
C. Shults,110,Collegiate,M,250,157.5,250,657.5,SBD,Single-ply,6
P. Anatasia,125,Collegiate,M,322.5,232.5,312.5,867.5,SBD,Single-ply,1
J. Johnson,125,Collegiate,M,272.5,170,260,702.5,SBD,Single-ply,2
Kevin Fertic,125,Collegiate,M,255,182.5,245,682.5,SBD,Single-ply,3
Jack London,125+,Collegiate,M,302.5,195,237.5,735,SBD,Single-ply,1
