Division,WeightClassKg,Place,Name,Team,BodyweightKg,Best3SquatKg,Best3BenchKg,Best3DeadliftKg,TotalKg,Equipment,Event,Sex
Girls,44.23,1,Ashley Villanueva,Kyle Lehman,44.09,115.67,61.23,115.67,292.57,Single-ply,SBD,F
Girls,44.23,2,Alicia Pecina,Taylor,42.64,77.11,38.56,86.18,201.85,Single-ply,SBD,F
Girls,44.23,3,Alyssa Marmolejo,Copperas Cove,43.54,65.77,34.02,88.45,188.24,Single-ply,SBD,F
Girls,44.23,4,Kaleia Rowland,Manor,38.37,61.23,34.02,68.04,163.29,Single-ply,SBD,F
Girls,44.23,DQ,Rebecca Jaramillo,Elgin,43.09,102.06,,,,Single-ply,SBD,F
Girls,44.23,DQ,Athena Aviles,Copperas Cove,44.23,,,,,Single-ply,SBD,F
Girls,47.85,1,Maria Facundo,San Marcos,46.99,92.99,49.9,120.2,263.08,Single-ply,SBD,F
Girls,47.85,2,Madison Sanchez,Taylor,46.54,106.59,49.9,97.52,254.01,Single-ply,SBD,F
Girls,47.85,3,Leah Anderson,Elgin,47.26,83.91,40.82,108.86,233.6,Single-ply,SBD,F
Girls,47.85,4,Gaby Niswanger,College Station,46.81,97.52,43.09,83.91,224.53,Single-ply,SBD,F
Girls,47.85,5,Maddie Menchaca,College Station,47.85,86.18,40.82,88.45,215.46,Single-ply,SBD,F
Girls,47.85,6,Malia Riley,Copperas Cove,46.9,58.97,29.48,68.04,156.49,Single-ply,SBD,F
Girls,47.85,DQ,Brianna Caballero,San Marcos,45.09,79.38,,,,Single-ply,SBD,F
Girls,47.85,DQ,Tasha San Migel,Rockdale,44.91,74.84,,,,Single-ply,SBD,F
Girls,51.94,1,Amber Saenz,Kyle Lehman,50.35,151.95,77.11,136.08,365.14,Single-ply,SBD,F
Girls,51.94,2,Jasmine Rodriguez,Kyle Lehman,51.44,99.79,45.36,111.13,256.28,Single-ply,SBD,F
Girls,51.94,3,Alyssa Ford,Taylor,51.26,99.79,47.63,97.52,244.94,Single-ply,SBD,F
Girls,51.94,4,Alivia Arnold,Copperas Cove,51.26,88.45,38.56,102.06,229.06,Single-ply,SBD,F
Girls,51.94,5,Dayna Ruiz,Copperas Cove,51.71,88.45,36.29,99.79,224.53,Single-ply,SBD,F
Girls,51.94,6,Kayla Zamora,Copperas Cove,51.44,83.91,29.48,79.38,192.78,Single-ply,SBD,F
Girls,51.94,7,Damaris Lopez,San Marcos,48.53,70.31,36.29,70.31,176.9,Single-ply,SBD,F
Girls,51.94,DQ,Jesenia Navarro,Rockdale,51.71,,,,,Single-ply,SBD,F
Girls,56.02,1,Rebecca Rosado,Kyle Lehman,55.25,138.35,72.57,136.08,347,Single-ply,SBD,F
Girls,56.02,2,Alyssa Wright,Copperas Cove,54.88,129.27,70.31,127.01,326.59,Single-ply,SBD,F
Girls,56.02,3,Maria Navarrete,Kyle Lehman,54.43,129.27,70.31,120.2,319.78,Single-ply,SBD,F
Girls,56.02,4,Victoria Perez,Taylor,53.71,111.13,49.9,113.4,274.42,Single-ply,SBD,F
Girls,56.02,5,Audrey Carranza,Taylor,54.25,108.86,49.9,113.4,272.16,Single-ply,SBD,F
Girls,56.02,6,Arianna Eseroma,Copperas Cove,54.79,106.59,56.7,108.86,272.16,Single-ply,SBD,F
Girls,56.02,7,Gaby Medellin,San Marcos,53.98,102.06,47.63,111.13,260.82,Single-ply,SBD,F
Girls,56.02,8,Olivia McNutt,College Station,53.34,115.67,38.56,97.52,251.74,Single-ply,SBD,F
Girls,56.02,9,Alyzea Hernandez,Manor,54.52,81.65,36.29,90.72,208.65,Single-ply,SBD,F
Girls,56.02,10,Taylor Flores,Copperas Cove,55.7,70.31,36.29,77.11,183.7,Single-ply,SBD,F
Girls,56.02,DQ,Alejandra Garcia,Elgin,53.61,97.52,,,,Single-ply,SBD,F
Girls,56.02,DQ,Jhina Bellows,College Station,55.52,,,,,Single-ply,SBD,F
Girls,56.02,DQ,Fanya Corbin,Copperas Cove,53.43,61.23,,,,Single-ply,SBD,F
Girls,60.1,1,Kayla Loupe,Kyle Lehman,60.06,170.1,81.65,138.35,390.09,Single-ply,SBD,F
Girls,60.1,2,Hannah Lopez,College Station,60.06,131.54,72.57,129.27,333.39,Single-ply,SBD,F
Girls,60.1,3,Juliet Calderon,San Marcos,58.24,142.88,65.77,113.4,322.05,Single-ply,SBD,F
Girls,60.1,4,Allura Bass,College Station,58.69,129.27,63.5,122.47,315.25,Single-ply,SBD,F
Girls,60.1,5,Mia Rodriquez,Taylor,59.24,120.2,52.16,131.54,303.91,Single-ply,SBD,F
Girls,60.1,6,Mackenzie Musto,Rockdale,60.1,102.06,65.77,129.27,297.1,Single-ply,SBD,F
Girls,60.1,7,Sophie White,College Station,60.06,120.2,58.97,113.4,292.57,Single-ply,SBD,F
Girls,60.1,8,Abby Gautreaux,Thrall,58.06,106.59,61.23,115.67,283.5,Single-ply,SBD,F
Girls,60.1,9,Kayshawna Fields,Taylor,58.24,113.4,43.09,127.01,283.5,Single-ply,SBD,F
Girls,60.1,10,Makiah Grant,Elgin,59.42,115.67,49.9,115.67,281.23,Single-ply,SBD,F
Girls,60.1,11,Lauren Lara,Kyle Lehman,58.69,106.59,61.23,111.13,278.96,Single-ply,SBD,F
Girls,60.1,12,Maggie Ryines,Taylor,57.15,104.33,43.09,117.93,265.35,Single-ply,SBD,F
Girls,60.1,13,Anna Navarro,Elgin,59.69,97.52,43.09,102.06,242.67,Single-ply,SBD,F
Girls,60.1,14,Alexcis Mascorro,Manor,57.33,86.18,49.9,102.06,238.14,Single-ply,SBD,F
Girls,60.1,15,Alaina Drouin,Pflugerville Connally,58.69,86.18,43.09,102.06,231.33,Single-ply,SBD,F
Girls,60.1,16,Jasmin Campbell,Copperas Cove,57.24,90.72,36.29,95.25,222.26,Single-ply,SBD,F
Girls,60.1,DQ,Lacy Wheat,Copperas Cove,58.06,,,,,Single-ply,SBD,F
Girls,60.1,DQ,Maria Martinez,Manor,57.33,74.84,,,,Single-ply,SBD,F
Girls,67.36,1,Lilly Jones,College Station,65.05,149.69,70.31,133.81,353.8,Single-ply,SBD,F
Girls,67.36,2,Savannah McDougall,Kyle Lehman,66.22,131.54,70.31,147.42,349.27,Single-ply,SBD,F
Girls,67.36,3,Maddie Sheumaker,Copperas Cove,67.13,138.35,74.84,131.54,344.73,Single-ply,SBD,F
Girls,67.36,4,Fayth Ham,College Station,64.41,127.01,74.84,136.08,337.93,Single-ply,SBD,F
Girls,67.36,5,Leah Lara,Kyle Lehman,63.87,124.74,72.57,129.27,326.59,Single-ply,SBD,F
Girls,67.36,6,Autumn Montelongo,Rockdale,64.68,131.54,61.23,129.27,322.05,Single-ply,SBD,F
Girls,67.36,7,Lilly Richter,College Station,62.69,136.08,63.5,115.67,315.25,Single-ply,SBD,F
Girls,67.36,8,Taylor Harbison,College Station,61.05,136.08,52.16,124.74,312.98,Single-ply,SBD,F
Girls,67.36,9,Anias Greenwood,Kyle Lehman,65.5,120.2,65.77,117.93,303.91,Single-ply,SBD,F
Girls,67.36,10,Ashia Baker,Manor,65.95,115.67,40.82,142.88,299.37,Single-ply,SBD,F
Girls,67.36,11,Marina Ramirez,Elgin,67.36,113.4,61.23,120.2,294.84,Single-ply,SBD,F
Girls,67.36,12,Kristen Gutierrez,Manor,65.59,113.4,52.16,115.67,281.23,Single-ply,SBD,F
Girls,67.36,13,Macy Knesek,Rockdale,65.32,99.79,49.9,127.01,276.69,Single-ply,SBD,F
Girls,67.36,14,Mattie League,Thrall,64.32,97.52,61.23,108.86,267.62,Single-ply,SBD,F
Girls,67.36,15,Lillie Valdez,Copperas Cove,66.86,104.33,47.63,113.4,265.35,Single-ply,SBD,F
Girls,67.36,16,Jackie Boucher,Elgin,65.86,99.79,34.02,97.52,231.33,Single-ply,SBD,F
Girls,67.36,17,Alyssary Wade,Elgin,64.68,83.91,34.02,97.52,215.46,Single-ply,SBD,F
Girls,67.36,18,Ashley Verry,Copperas Cove,62.23,63.5,36.29,88.45,188.24,Single-ply,SBD,F
Girls,67.36,19,Erica Gomez #2,Elgin,66.86,68.04,40.82,77.11,185.97,Single-ply,SBD,F
Girls,67.36,20,Makia Furr,Copperas Cove,65.68,68.04,29.48,77.11,174.63,Single-ply,SBD,F
Girls,75.07,1,Mia Ybarra,Kyle Lehman,73.03,174.63,88.45,165.56,428.64,Single-ply,SBD,F
Girls,75.07,2,Mia Palomarez,Kyle Lehman,75.02,154.22,86.18,136.08,376.48,Single-ply,SBD,F
Girls,75.07,3,Polymenis Athena,College Station,73.3,147.42,77.11,147.42,371.95,Single-ply,SBD,F
Girls,75.07,4,Emma Krammer,Thrall,71.21,129.27,77.11,127.01,333.39,Single-ply,SBD,F
Girls,75.07,5,Jiya Edwards,Copperas Cove,68.31,129.27,61.23,140.61,331.12,Single-ply,SBD,F
Girls,75.07,6,Maddie Bowen,Kyle Lehman,72.21,124.74,70.31,129.27,324.32,Single-ply,SBD,F
Girls,75.07,7,Alexandra Arias,Taylor,74.93,145.15,56.7,120.2,322.05,Single-ply,SBD,F
Girls,75.07,8,Whitley Boyd,Rockdale,71.85,113.4,68.04,117.93,299.37,Single-ply,SBD,F
Girls,75.07,9,Larissa Melendez,Copperas Cove,68.4,106.59,54.43,104.33,265.35,Single-ply,SBD,F
Girls,75.07,10,Marcie Morales,Elgin,73.66,102.06,47.63,111.13,260.82,Single-ply,SBD,F
Girls,75.07,11,Twyquonda Brooks,Copperas Cove,73.94,68.04,45.36,95.25,208.65,Single-ply,SBD,F
Girls,75.07,DQ,Annabelle Grace,College Station,74.84,,,,,Single-ply,SBD,F
Girls,82.33,1,Cara Garcia,Kyle Lehman,77.56,133.81,81.65,142.88,358.34,Single-ply,SBD,F
Girls,82.33,2,Da'Keona Jones,Manor,80.65,113.4,49.9,124.74,288.03,Single-ply,SBD,F
Girls,82.33,3,Yvette Gutierrez,Taylor,82.1,136.08,52.16,133.81,322.05,Single-ply,SBD,F
Girls,82.33,4,Haven Jimenez,Rockdale,79.56,97.52,49.9,108.86,256.28,Single-ply,SBD,F
Girls,82.33,5,Mycki Patterson,Elgin,80.38,102.06,47.63,106.59,256.28,Single-ply,SBD,F
Girls,82.33,6,Lisbett Boussart,Rockdale,80.47,92.99,45.36,90.72,229.06,Single-ply,SBD,F
Girls,82.33,7,Kiarra Spicer,Copperas Cove,76.84,81.65,40.82,90.72,213.19,Single-ply,SBD,F
Girls,82.33,DQ,Kasandra Villalobos,Copperas Cove,76.02,74.84,,,,Single-ply,SBD,F
Girls,90.04,1,Maddie Cruz,Kyle Lehman,89.99,174.63,102.06,165.56,442.25,Single-ply,SBD,F
Girls,90.04,2,Shanice Ross,Elgin,83.82,156.49,77.11,165.56,399.16,Single-ply,SBD,F
Girls,90.04,3,Izabella Vidales,Taylor,87.54,145.15,63.5,149.69,358.34,Single-ply,SBD,F
Girls,90.04,4,Brook Ragan,College Station,87.63,129.27,86.18,138.35,353.8,Single-ply,SBD,F
Girls,90.04,5,BreNasha Lewis,College Station,87.63,142.88,68.04,124.74,335.66,Single-ply,SBD,F
Girls,90.04,6,Alisha Donnatien,Copperas Cove,89.99,124.74,61.23,113.4,299.37,Single-ply,SBD,F
Girls,90.04,7,Ashley Evans,Elgin,87.82,108.86,47.63,108.86,265.35,Single-ply,SBD,F
Girls,90.04,DQ,Zaria Bledsoe,Elgin,89.99,151.95,,,,Single-ply,SBD,F
Girls,100.02,1,Malia Gonzales,Kyle Lehman,98.7,185.97,115.67,161.03,462.66,Single-ply,SBD,F
Girls,100.02,2,Alexxis Smith,Copperas Cove,96.25,115.67,68.04,120.2,303.91,Single-ply,SBD,F
Girls,100.02,DQ,Alejandra Gomez,Elgin,94.71,,,,,Single-ply,SBD,F
Girls,117.71,1,Sophie Cox,College Station,115.39,181.44,108.86,151.95,442.25,Single-ply,SBD,F
Girls,117.71,2,Heavenly Turner,Taylor,108.23,97.52,47.63,102.06,247.21,Single-ply,SBD,F
Girls,117.71+,1,Alyssa Arnold,Copperas Cove,123.65,226.8,117.93,197.31,542.04,Single-ply,SBD,F
Girls,,NS,Kerrington Holliday,Elgin,,,,,,Single-ply,SBD,F
