Place,Name,BirthYear,Country,BodyweightKg,Bench1Kg,Bench2Kg,Bench3Kg,Best3BenchKg,TotalKg,WeightClassKg,Division,Event,Sex,Equipment
1,Catrin Resch,1965,Germany,46.7,70,72.5,-75,72.5,72.5,48,Masters 1,B,F,Single-ply
DQ,Marion Friedrich,1965,Germany,46.2,-95,-95,-95,,,48,Masters 1,B,F,Single-ply
1,Viola Lauber,1965,Germany,49.9,77.5,82.5,90,90,90,52,Masters 1,B,F,Single-ply
2,Bernadette Andreani,1958,France,51.7,65,67.5,70,70,70,52,Masters 1,B,F,Single-ply
1,Tarja Uppala,1965,Finland,55.1,77.5,-80,80,80,80,56,Masters 1,B,F,Single-ply
2,Viviane Marguerite,1958,France,54.7,-65,65,-77.5,65,65,56,Masters 1,B,F,Single-ply
1,Ute Villwock,1967,Germany,59.3,-97.5,-97.5,97.5,97.5,97.5,60,Masters 1,B,F,Single-ply
1,Patricia Maciejewski,1961,France,64.9,95,102.5,105,105,105,67.5,Masters 1,B,F,Single-ply
2,Urszula Foryś,1965,Poland,65.4,-105,105,-107.5,105,105,67.5,Masters 1,B,F,Single-ply
3,Monika Schnölzer,1961,Germany,60.2,102.5,-105,-105,102.5,102.5,67.5,Masters 1,B,F,Single-ply
1,Tone Glomstein,1964,Norway,71.1,105,-110,117.5,117.5,117.5,75,Masters 1,B,F,Single-ply
2,Ursula Häuser,1960,Germany,72.9,105,110,-117.5,110,110,75,Masters 1,B,F,Single-ply
3,Darja Janíčková,1962,Czechia,69.9,75,80,-85,80,80,75,Masters 1,B,F,Single-ply
1,Barbara Meyer,1961,Germany,82.5,55,80,-90,80,80,82.5,Masters 1,B,F,Single-ply
1,Birgit Witt,1963,Germany,83,120,-130,130,130,130,90,Masters 1,B,F,Single-ply
1,Barbara Pawlik,1959,Poland,92.3,117.5,122.5,125,125,125,90+,Masters 1,B,F,Single-ply
1,Ghislaine Debacker,1949,France,46.1,62.5,65,,65,65,48,Masters 2,B,F,Single-ply
2,Maryse Suire,1946,France,47.1,60,62.5,-65,62.5,62.5,48,Masters 2,B,F,Single-ply
1,Karin Engelbrecht,1956,Germany,50.7,82.5,85,-88.5,85,85,52,Masters 2,B,F,Single-ply
2,Françoise Heligon,1943,France,50.5,60,-65,-65,60,60,52,Masters 2,B,F,Single-ply
1,Françoise Peron-Sahut,1956,France,54.6,72.5,-75,75,75,75,56,Masters 2,B,F,Single-ply
2,Pia Kring,1957,Germany,54.5,-67.5,67.5,-72.5,67.5,67.5,56,Masters 2,B,F,Single-ply
1,Adina Hyková,1943,Czechia,59.3,85,-87.5,-87.5,85,85,60,Masters 2,B,F,Single-ply
DQ,Maiju Hilander,1957,Finland,58.8,-62.5,-62.5,-62.5,,,60,Masters 2,B,F,Single-ply
1,Evelyne Herbin,1956,France,65,85,92.5,-96,92.5,92.5,67.5,Masters 2,B,F,Single-ply
2,Anita Thimm,1950,Germany,64.3,77.5,85,-87.5,85,85,67.5,Masters 2,B,F,Single-ply
1,Ursula Eulenstein,1949,Germany,73.9,80,85,-90,85,85,75,Masters 2,B,F,Single-ply
1,Hana Takáčová,1954,Czechia,83.3,135,140,142.5,142.5,142.5,90,Masters 2,B,F,Single-ply
1,Eva Speth,1954,Germany,91.6,127.5,-132.5,,127.5,127.5,90+,Masters 2,B,F,Single-ply
1,Rainer Falke,1965,Germany,56,105,115,-122.5,115,115,56,Masters 1,B,M,Single-ply
1,Gary Prater,1965,UK,66.9,100,-130,-130,100,100,67.5,Masters 1,B,M,Single-ply
1,Alphonse Cucuzella,1966,France,74,207.5,215,220,220,220,75,Masters 1,B,M,Single-ply
2,Roy Berndt,1966,Germany,74.9,190,-200,200,200,200,75,Masters 1,B,M,Single-ply
3,Grzegorz Leski,1958,Poland,73.5,120,130,140,140,140,75,Masters 1,B,M,Single-ply
1,Frank Heinrich,1958,Germany,82.1,202.5,205,-207.5,205,205,82.5,Masters 1,B,M,Single-ply
2,Gemel Boughamdouz,1963,France,82.3,200,-205,-210,200,200,82.5,Masters 1,B,M,Single-ply
1,Jiří Kati,1965,Czechia,88.5,-212.5,215,222.5,222.5,222.5,90,Masters 1,B,M,Single-ply
2,Patrick LeBlevennec,1963,France,88.2,210,215,-220,215,215,90,Masters 1,B,M,Single-ply
3,Klaus-Dieter Jacob,1961,Germany,88.6,207.5,-212.5,212.5,212.5,212.5,90,Masters 1,B,M,Single-ply
4,Vincent Kondákor,1963,Slovakia,89.5,210,-215,-217.5,210,210,90,Masters 1,B,M,Single-ply
5,Roger Pohl,1962,Germany,89.7,210,-215,-217.5,210,210,90,Masters 1,B,M,Single-ply
6,Miroslav Paukert,1963,Czechia,88.5,200,-207.5,-207.5,200,200,90,Masters 1,B,M,Single-ply
7,Manfred Sabathy,1961,Austria,85.2,170,180,-182.5,180,180,90,Masters 1,B,M,Single-ply
1,Matti Vuontisvaara,1967,Finland,99.4,-230,-230,230,230,230,100,Masters 1,B,M,Single-ply
2,Vincent Encinas,1964,France,99.1,227.5,-232.5,-232.5,227.5,227.5,100,Masters 1,B,M,Single-ply
3,Ian Kinghorn,1959,UK,99.2,200,-220,220,220,220,100,Masters 1,B,M,Single-ply
4,Hervé France,1966,France,98.7,-215,215,-220,215,215,100,Masters 1,B,M,Single-ply
5,Tomáš Sedláček,1965,Czechia,97.4,192.5,200,-205,200,200,100,Masters 1,B,M,Single-ply
DQ,Rolf Dilbat,1963,Germany,96.2,-245,-245,-245,,,100,Masters 1,B,M,Single-ply
1,Krzysztof Bożyczko-Jałocha,1965,Poland,106.1,-265,265,-277.5,265,265,110,Masters 1,B,M,Single-ply
2,Marcus Hoen,1966,Germany,109.7,245,250,-252.5,250,250,110,Masters 1,B,M,Single-ply
3,Michal Kondla,1966,Czechia,109.8,210,-217.5,-220,210,210,110,Masters 1,B,M,Single-ply
4,Peter Klimo,1960,Slovakia,105.6,-190,-190,190,190,190,110,Masters 1,B,M,Single-ply
DD,Siegfried Steinmair,1964,Austria,109.2,-287.5,-287.5,287.5,287.5,,110,Masters 1,B,M,Single-ply
1,Mariusz Hadrysiak,1961,Poland,111,255,-260,-260,255,255,125,Masters 1,B,M,Single-ply
2,Michal Mihály,1966,Czechia,123.3,237.5,245,250,250,250,125,Masters 1,B,M,Single-ply
3,Stefan Huldén,1966,Sweden,124.5,242.5,-247.5,247.5,247.5,247.5,125,Masters 1,B,M,Single-ply
4,Jiří Krčmář,1962,Czechia,118,217.5,-222.5,222.5,222.5,222.5,125,Masters 1,B,M,Single-ply
5,Lutz Stoppa,1961,Germany,122.7,215,-220,-225,215,215,125,Masters 1,B,M,Single-ply
DQ,Bernd Meyer,1961,Germany,114.2,-210,-215,-222.5,,,125,Masters 1,B,M,Single-ply
1,Jürgen Lochner,1959,Germany,145,-265,-265,265,265,265,125+,Masters 1,B,M,Single-ply
2,Kjetil Birkedal,1967,Norway,137.6,-252.5,252.5,-265,252.5,252.5,125+,Masters 1,B,M,Single-ply
3,František Ambrož,1965,Czechia,126.5,225,-232.5,-242.5,225,225,125+,Masters 1,B,M,Single-ply
4,Renaldo Rosseti,1960,France,138.5,190,-200,-200,190,190,125+,Masters 1,B,M,Single-ply
DQ,Jean-Yves Minelle,1966,France,144.8,-252.5,-252.5,-252.5,,,125+,Masters 1,B,M,Single-ply
1,Alexander Moiseev,1954,Belarus,55.8,95,102.5,107.5,107.5,107.5,56,Masters 2,B,M,Single-ply
2,Leszek Wasniowski,1957,Poland,55.5,95,100,105,105,105,56,Masters 2,B,M,Single-ply
1,Antoni Kaliňski,1953,Poland,59.6,115,120,125,125,125,60,Masters 2,B,M,Single-ply
DQ,Seppo Flink,1953,Finland,59.6,-105,-105,-105,,,60,Masters 2,B,M,Single-ply
1,Rudolf Böhm,1952,Czechia,66.3,150,157.5,160,160,160,67.5,Masters 2,B,M,Single-ply
2,Karsten Gelhar,1957,Germany,67.3,120,125,-130,125,125,67.5,Masters 2,B,M,Single-ply
3,Birger Sundstøl,1954,Norway,65.2,105,112.5,-120,112.5,112.5,67.5,Masters 2,B,M,Single-ply
1,Detlef Heinrich,1956,Germany,74.5,170,-182.5,-182.5,170,170,75,Masters 2,B,M,Single-ply
2,Friedhelm Fuhr,1950,Germany,74.8,155,-162.5,-172.5,155,155,75,Masters 2,B,M,Single-ply
3,Ryszard Bienczyk,1953,Poland,73.6,110,,,110,110,75,Masters 2,B,M,Single-ply
1,Bjarne Synstad,1951,Norway,80.8,-205,205,-217.5,205,205,82.5,Masters 2,B,M,Single-ply
2,Krzysztof Kuchnio,1956,Poland,81.1,160,175,-182.5,175,175,82.5,Masters 2,B,M,Single-ply
3,Jaroslav Fajkus,1949,Czechia,80.9,140,145,150,150,150,82.5,Masters 2,B,M,Single-ply
DQ,Hans-Jürgen Ehrt,1956,Germany,82.1,-175,-180,-185,,,82.5,Masters 2,B,M,Single-ply
1,Reinhard Hermann,1950,Germany,89,175,-182.5,-182.5,175,175,90,Masters 2,B,M,Single-ply
2,Josef Ptáček,1953,Czechia,88.9,147.5,-155,155,155,155,90,Masters 2,B,M,Single-ply
1,Marek Markwat,1952,Poland,92.8,225,230,-241,230,230,100,Masters 2,B,M,Single-ply
2,Luboš Maršík,1952,Czechia,97.1,215,220,222.5,222.5,222.5,100,Masters 2,B,M,Single-ply
3,Manfred Georg,1955,Germany,99.2,205,210,-222.5,210,210,100,Masters 2,B,M,Single-ply
4,Leif Sydengen,1955,Norway,94.5,-200,200,-210,200,200,100,Masters 2,B,M,Single-ply
5,Stanislas Couchy,1953,France,96.6,185,190,-200,190,190,100,Masters 2,B,M,Single-ply
1,Jean-Pierre Aymon,1954,Austria,100.3,215,220,-225,220,220,110,Masters 2,B,M,Single-ply
2,Laurent Durocher,1952,France,101.9,195,202.5,-207.5,202.5,202.5,110,Masters 2,B,M,Single-ply
3,Stephen Demeis,1957,UK,108.5,167.5,177.5,187.5,187.5,187.5,110,Masters 2,B,M,Single-ply
4,Krzysztof Piwowar,1955,Poland,106.7,167.5,-172.5,-177.5,167.5,167.5,110,Masters 2,B,M,Single-ply
5,Jiří Horník,1948,Czechia,100.1,165,-175,-177.5,165,165,110,Masters 2,B,M,Single-ply
DQ,Kauko Savonen,1957,Finland,109.2,-220,-220,-227.5,,,110,Masters 2,B,M,Single-ply
1,Michel Dufour,1955,France,122.8,235,-242.5,-242.5,235,235,125,Masters 2,B,M,Single-ply
2,Truls Nygaard,1956,Norway,121.6,-225,225,-235,225,225,125,Masters 2,B,M,Single-ply
3,Julian Massey,1956,UK,113.3,135,-190,-190,135,135,125,Masters 2,B,M,Single-ply
1,Antonín Šota,1952,Czechia,125.1,225,-235,-235,225,225,125+,Masters 2,B,M,Single-ply
2,Helmut Rangnit,1956,Germany,125.1,195,200,210,210,210,125+,Masters 2,B,M,Single-ply
1,Pierre Gallart,1944,France,55.7,115,122.5,127.5,127.5,127.5,56,Masters 3,B,M,Single-ply
1,Alexander Diepold,1937,Germany,59.9,-105,105,116,116,116,60,Masters 3,B,M,Single-ply
1,Rainer Geese,1943,Germany,65,105,115,-125,115,115,67.5,Masters 3,B,M,Single-ply
1,Antonín Soušek,1946,Czechia,73.8,90,,,90,90,75,Masters 3,B,M,Single-ply
1,Rainer Schötz,1943,Germany,78.3,137.5,142.5,-145,142.5,142.5,82.5,Masters 3,B,M,Single-ply
2,Karel Olič,1947,Czechia,78.8,125,130,137.5,137.5,137.5,82.5,Masters 3,B,M,Single-ply
3,Jiří Poutník,1946,Czechia,79.3,115,125,-130,125,125,82.5,Masters 3,B,M,Single-ply
4,Mike Edwards,1944,UK,82.1,120,-122.5,-122.5,120,120,82.5,Masters 3,B,M,Single-ply
1,Jocel Demirel,1947,Germany,88.7,172.5,-180,180,180,180,90,Masters 3,B,M,Single-ply
2,Bill McFadyen,1944,UK,83,160,165,-172.5,165,165,90,Masters 3,B,M,Single-ply
3,Norman Anderson,1937,UK,88.2,140,145,-150,145,145,90,Masters 3,B,M,Single-ply
1,Gerd Fell,1938,Germany,91.3,155,-160,160,160,160,100,Masters 3,B,M,Single-ply
2,Peer Bjaaland,1942,Norway,91.5,-152.5,157.5,-165,157.5,157.5,100,Masters 3,B,M,Single-ply
3,Josef Hermann,1946,Germany,98.3,-147.5,152.5,-165,152.5,152.5,100,Masters 3,B,M,Single-ply
4,František Esser,1946,Czechia,97.1,120,127.5,-132.5,127.5,127.5,100,Masters 3,B,M,Single-ply
5,Gavin Walker,1944,UK,96.3,112.5,115,-117.5,115,115,100,Masters 3,B,M,Single-ply
1,Mujir El Alami,1946,Sweden,107.9,-165,165,172.5,172.5,172.5,110,Masters 3,B,M,Single-ply
2,Georg Ramsauer,1947,Germany,107.6,160,-170,-172.5,160,160,110,Masters 3,B,M,Single-ply
1,Otakar Machytka,1944,Czechia,110.8,125,140,145,145,145,125,Masters 3,B,M,Single-ply
2,Frederick Smith,1945,UK,112.7,130,137.5,-142.5,137.5,137.5,125,Masters 3,B,M,Single-ply
DQ,Christer Nylund,1944,Finland,116.7,-210,-210,-210,,,125,Masters 3,B,M,Single-ply
1,Georg Boström,1947,Sweden,125.1,90,,,90,90,125+,Masters 3,B,M,Single-ply
DD,Mauno Kontto,1941,Finland,125.8,160,170,180,180,,125+,Masters 3,B,M,Single-ply
