Place,Name,Division,Country,BodyweightKg,Squat1Kg,Squat2Kg,Squat3Kg,Best3SquatKg,Squat4Kg,Bench1Kg,Bench2Kg,Bench3Kg,Best3BenchKg,Bench4Kg,Deadlift1Kg,Deadlift2Kg,Deadlift3Kg,Best3DeadliftKg,Deadlift4Kg,TotalKg,WeightClassKg,Sex,CyrillicName,BirthYear,Equipment,Event
1,Elnara Kulieva,F_OCR_WPC,Azerbaijan,47.4,80,87.5,-95,87.5,,47.5,55,-57.5,55,,110,120,130,130,,272.5,48,F,,1986,Wraps,SBD
1,Regina Toth,F_JCR_WPC,Hungary,61.8,67.5,72.5,77.5,77.5,,42.5,47.5,-52.5,47.5,,100,105,110,110,,235,67.5,F,,1994,Wraps,SBD
1,Elena Šímová,F_OCR_WPC,Slovakia,65.3,145,160,165,165,170,80,90,-97.5,90,,170,185,-192.5,185,,440,67.5,F,,1978,Wraps,SBD
2,Jekaterina Übelacker,F_OCR_WPC,Latvia,66.1,105,115,122.5,122.5,,57.5,65,72.5,72.5,,115,125,135,135,,330,67.5,F,,1984,Wraps,SBD
1,Kiss Katalin Schindlerné,F_MCR_1_WPC,Hungary,66.3,95,105,112.5,112.5,115,75,85,-90,85,,125,137.5,145.5,145.5,150,343,67.5,F,,1970,Wraps,SBD
1,Viktória Spodniaková,F_TCR_2_WPC,Slovakia,88.3,100,115,-125,115,,50,60,-70,60,,90,105,115,115,-125,290,90,F,,1997,Wraps,SBD
1,Ondrej Oláh,M_JCR_WPC,Slovakia,58.1,85,95,105,105,,120,130,-140,130,,140,150,165,165,,400,60,M,,1991,Wraps,SBD
1,Norbert Olah,M_TCR_2_WPC,Slovakia,63.2,90,100,-110,100,,85,90,-95,90,,160,190,-200,190,,380,67.5,M,,1997,Wraps,SBD
1,Gabriel Bari,M_JCR_WPC,Slovakia,61.8,100,110,120,120,,90,95,-100,95,,150,160,170,170,,385,67.5,M,,1994,Wraps,SBD
2,László Kiss Dávid,M_JCR_WPC,Hungary,63.1,70,80,90,90,,70,80,-85,80,,130,140,150,150,,320,67.5,M,,1994,Wraps,SBD
1,Daniel Horvath,M_TCR_3_WPC,Slovakia,71.7,110,120,125,125,,110,120,125,125,,190,205,210,210,,460,75,M,,1995,Wraps,SBD
1,Michal Kozák,M_OCR_WPC,Slovakia,78.4,170,182.5,-190,182.5,,140,150,-155,150,,212.5,222.5,-252.5,222.5,,555,82.5,M,,1987,Wraps,SBD
2,Matej Bognar,M_OCR_WPC,Slovakia,74.3,162.5,175,-185,175,,107.5,112.5,-115,112.5,,220,235,-250,235,,522.5,75,M,,1989,Wraps,SBD
1,Josef Gabrhel,M_MCR_4_WPC,Slovakia,74.6,127.5,135,,135,,97.5,105,107.5,107.5,,140,150,160,160,,402.5,75,M,,1955,Wraps,SBD
1,Milan Hožďora,M_JCR_WPC,Slovakia,75.2,140,155,170,170,,115,-130,130,130,,180,200,-220,200,,500,82.5,M,,1993,Wraps,SBD
1,Stanislav Simeonov,M_OCR_WPC,Bulgaria,80.4,-210,210,225,225,,155,-162.5,-162.5,155,,230,245,-260,245,,625,82.5,M,,1989,Wraps,SBD
2,Marian Chrenovský,M_OCR_WPC,Slovakia,81.6,160,170,175,175,,107.5,115,-122.5,115,,195,205,215,215,,505,82.5,M,,1990,Wraps,SBD
1,Miklós Kardos,M_MCR_5_WPC,Hungary,79.2,100,110,115,115,,70,75,77.5,77.5,,130,140,145,145,,337.5,82.5,M,,1951,Wraps,SBD
1,Michal Kotleba,M_TCR_2_WPC,Slovakia,89.3,110,115,-125,115,,70,75,-80,75,,130,140,150,150,,340,90,M,,1997,Wraps,SBD
1,Alexander Smetana,M_TCR_3_WPC,Slovakia,83.6,140,150,160,160,,110,120,125,125,,180,200,-215,200,,485,90,M,,1996,Wraps,SBD
1,Juraj Hájnik,M_JCR_WPC,Slovakia,87.6,170,185,202.5,202.5,,150,-165,165,165,,235,255,-272.5,255,,622.5,90,M,,1993,Wraps,SBD
2,Miroslav Skácel,M_JCR_WPC,Czechia,89.5,170,185,202.5,202.5,,-145,145,150,150,,-230,230,-240,230,,582.5,90,M,,1994,Wraps,SBD
3,Radomir Kvasnička,M_JCR_WPC,Slovakia,88,150,170,-180,170,,115,125,130,130,,180,200,207.5,207.5,,507.5,90,M,,1993,Wraps,SBD
1,János Fazekas,M_OCR_WPC,Hungary,89.1,210,225,-240,225,,185,-192.5,192.5,192.5,,260,-280,-280,260,,677.5,90,M,,1987,Wraps,SBD
2,Karol Janiček,M_OCR_WPC,Slovakia,84.5,200,215,-225,215,,130,140,-147.5,140,,230,250,-260,250,,605,90,M,,1988,Wraps,SBD
1,Peter Herák,M_MCR_3_WPC,Slovakia,82.7,180,-200,-200,180,,105,110,112.5,112.5,,200,215,220,220,,512.5,90,M,,1960,Wraps,SBD
1,Ferenc Smuk,M_MCR_5_WPC,Hungary,88,205,215,220,220,,90,95,97.5,97.5,,220,235,242.5,242.5,248,560,90,M,,1952,Wraps,SBD
1,Marek Kunik,M_TCR_1_WPC,Slovakia,99.5,150,165,175,175,,100,112.5,117.5,117.5,,160,190,205,205,,497.5,100,M,,1999,Wraps,SBD
1,Andrej Horňak,M_TCR_3_WPC,Slovakia,94.8,-200,-200,200,200,,110,120,-130,120,,200,220,-230,220,,540,100,M,,1996,Wraps,SBD
1,Oliver Jackanin,M_JCR_WPC,Slovakia,96.4,190,200,210,210,,125,130,137.5,137.5,,225,240,252.5,252.5,,600,100,M,,1992,Wraps,SBD
2,Mikuláš Sopoliga,M_JCR_WPC,Slovakia,96.3,210,220,-235,220,,105,115,122.5,122.5,,230,245,-257.5,245,,587.5,100,M,,1994,Wraps,SBD
3,Ádám Takács,M_JCR_WPC,Hungary,98.5,180,190,-200,190,,80,-87.5,-87.5,80,,180,-190,190,190,,460,100,M,,1991,Wraps,SBD
1,Peter Lincmaier,M_OCR_WPC,Slovakia,99.2,240,260,270,270,,160,175,-185,175,,280,295,310,310,,755,100,M,,1983,Wraps,SBD
2,Vagif Ahmadzade Orkhan,M_OCR_WPC,Azerbaijan,99.3,240,250,-255,250,,175,185,190,190,,272.5,-287.5,-287.5,272.5,,712.5,100,M,,1988,Wraps,SBD
3,János Kiss Gábor,M_OCR_WPC,Hungary,99.1,240,250,-260,250,,150,160,-165,160,,300,-310,-310,300,,710,100,M,,1988,Wraps,SBD
1,Zoltán Karsai,M_MCR_1_WPC,Hungary,93.3,-160,160,175,175,,170,182.5,187.5,187.5,,190,205,225,225,,587.5,100,M,,1974,Wraps,SBD
1,József Sztanke,M_MCR_5_WPC,Hungary,95,190,210,,210,,155,165,-170,165,,210,225,230,230,,605,100,M,,1954,Wraps,SBD
1,András Szilágyi,M_JCR_WPC,Hungary,109.4,230,240,245,245,,180,190,195,195,,260,275,280,280,,720,110,M,,1992,Wraps,SBD
2,Szilárd Patyi,M_JCR_WPC,Hungary,110,210,225,240,240,,175,182.5,187.5,187.5,,280,290,-295,290,,717.5,110,M,,1991,Wraps,SBD
3,Richárd Ungvári,M_JCR_WPC,Hungary,107.2,150,170,180,180,,130,140,150,150,,-200,210,230,230,,560,110,M,,1994,Wraps,SBD
1,Petr Folprecht,M_OCR_WPC,Czechia,107.5,265,280,290,290,,155,165,-170,165,,305,325,-330,325,,780,110,M,,1985,Wraps,SBD
2,Zoltán Kovács,M_OCR_WPC,Hungary,104.1,225,-240,240,240,,150,170,-180,170,,300,310,315,315,,725,110,M,,1989,Wraps,SBD
1,Norbert Királyi,M_MCR_1_WPC,Hungary,105.9,-220,220,230,230,,190,200,-205.5,200,,280,300,,300,,730,110,M,,1974,Wraps,SBD
1,Ondrej Döme,M_MCR_4_WPC,Slovakia,102.4,150,162.5,170,170,,140,145,150,150,,150,160,165,165,,485,110,M,,1955,Wraps,SBD
1,Marius Babkovič,M_TCR_3_WPC,Slovakia,112.2,200,217.5,-227.5,217.5,,120,130,-135,130,,230,240,250,250,,597.5,125,M,,1994,Wraps,SBD
1,Jan Teliska,M_JCR_WPC,Slovakia,114.1,190,205,220,220,,165,-175,-175,165,,220,-235,-235,220,,605,125,M,,1991,Wraps,SBD
1,Tahir Mardanov Vusal,M_OCR_WPC,Azerbaijan,124.6,310,-330,330,330,,220,232.5,-240,232.5,,350,-380,-380,350,,912.5,125,M,,1985,Wraps,SBD
2,József Kosaras,M_OCR_WPC,Hungary,119.7,260,275,-285,275,,200,210,215,215,,290,300,-305,300,,790,125,M,,1985,Wraps,SBD
1,Ľubomír Majstrák,M_MCR_1_WPC,Slovakia,114.2,150,160,170,170,,80,90,100,100,,150,160,170,170,,440,125,M,,1974,Wraps,SBD
1,Anatoliy Evgrafov,M_MCR_3_WPC,Russia,114.2,210,225,235,235,,175,185,-190,185,,245,260,270,270,,690,125,M,Анатолий Евграфов,1960,Wraps,SBD
1,Miloš Šnajdr,M_OCR_WPC,Slovakia,128,300,-320,320,320,-327.5,210,-220,220,220,,330,360,-370,360,,900,140,M,,1977,Wraps,SBD
1,Erika Buzinkayová,F_TEM_3_WPC,Slovakia,48.7,120,130,140,140,,60,67.5,70,70,,105,117.5,122.5,122.5,,332.5,52,F,,1994,Multi-ply,SBD
1,Timea Nagy,F_TEM_2_WPC,Hungary,56.1,110,-125,130,130,,60,67.5,-72.5,67.5,,110,-122.5,-125,110,,307.5,60,F,,1998,Multi-ply,SBD
1,Eva Varga Violetta,F_JEM_WPC,Hungary,72.8,220.5,240,-260,240,-270,-127.5,-127.5,127.5,127.5,,-190,-190,190,190,-210.5,557.5,75,F,,1992,Multi-ply,SBD
1,Júlia Kostúrová,F_OEM_WPC,Slovakia,81,265,285,-300,285,-300,155,167.5,175,175,,180,200,210,210,,670,82.5,F,,1989,Multi-ply,SBD
1,Tomáš Siska,M_TEM_1_WPC,Slovakia,59,100,105,110,110,,40,45,-50,45,,90,100,-105,100,,255,60,M,,2000,Multi-ply,SBD
1,Daniel Tatarka,M_OEM_WPC,Slovakia,79.2,260,-280,280,280,,160,180,-200,180,,220,240,250,250,,710,82.5,M,,1983,Multi-ply,SBD
DQ,Patrik Peciar,M_OEM_WPC,Slovakia,88,310,-330,-330,310,,230,-240,-240,230,,-270,-270,-270,,,,90,M,,1986,Multi-ply,SBD
1,Peter Sakala,M_TEM_3_WPC,Slovakia,99.8,230,-260,260,260,,165,-180,-180,165,,210,230,-250,230,,655,100,M,,1996,Multi-ply,SBD
2,Adam Vincze,M_TEM_3_WPC,Slovakia,90.6,155,165,175,175,,-130,130,-145,130,,150,165,177.5,177.5,,482.5,100,M,,1995,Multi-ply,SBD
1,Tomáš Bugáň,M_OEM_WPC,Slovakia,99.8,300,-315,315,315,,230,245,-255,245,,240,250,255,255,,815,100,M,,1990,Multi-ply,SBD
1,Dániel Dömötor,M_TEM_3_WPC,Slovakia,106.7,300,310,-317.5,310,,215,220,230,230,,220,237.5,245,245,,785,110,M,,1996,Multi-ply,SBD
1,Jozef Vrábel,M_JEM_WPC,Slovakia,104,325,350,360,360,,-220,220,237.5,237.5,,250,280,-307.5,280,,877.5,110,M,,1994,Multi-ply,SBD
2,Martin Beránek,M_JEM_WPC,Slovakia,107,300,315,-330,315,,200,210,215,215,,280,300,-315,300,,830,110,M,,1993,Multi-ply,SBD
1,Attila Szücs,M_OEM_WPC,Hungary,101.8,280,300,330,330,,210,230,-250,230,,200,220,250,250,,810,110,M,,1976,Multi-ply,SBD
1,Patrik Navara,M_JEM_WPC,Czechia,114.7,390,-415,-415,390,,240,250,257.5,257.5,,280,292.5,-307.5,292.5,,940,125,M,,1991,Multi-ply,SBD
DQ,László Hanusz,M_OEM_WPC,Hungary,124,340,360,-380,360,,-280,-280,-280,,,,,,,,,125,M,,1976,Multi-ply,SBD
1,Lajos Kovács,M_MEM_1_WPC,Hungary,125,-290,290,310,310,,-240,240,260,260,,180,210,-235,210,,780,125,M,,1971,Multi-ply,SBD
1,Markus Zehethofer,M_OEM_WPC,Austria,125.5,320,340,,340,,-220,-220,220,220,,280,300,315,315,,875,140,M,,1975,Multi-ply,SBD
1,Barbara Egri,F_TR_1_WPC,Hungary,52,,,,,,45,50,-52.5,50,,,,,,,50,52,F,,1999,Raw,B
DQ,Mária Kovács Ildikó,F_TR_3_WPC,Hungary,54,,,,,,-60,-60,-60,,,,,,,,,56,F,,1995,Raw,B
1,Ilona Egri,F_MR_1_WPC,Hungary,57.8,,,,,,55,60,-62.5,60,,,,,,,60,60,F,,1972,Raw,B
1,Miroslava Herčková,F_OR_WPC,Slovakia,66.8,,,,,,90,100,-105,100,,,,,,,100,67.5,F,,1979,Raw,B
2,Zsofia Zsolt,F_OR_WPC,Hungary,60.8,,,,,,50,55,-60,55,,,,,,,55,67.5,F,,1984,Raw,B
1,Rita Nagy,F_MR_1_WPC,Hungary,64.4,,,,,,105,112.5,-120.5,112.5,,,,,,,112.5,67.5,F,,1974,Raw,B
1,Zofia Pychowska,F_MR_5_WPC,Poland,68.2,,,,,,57.5,-62.5,62.5,62.5,,,,,,,62.5,75,F,,1952,Raw,B
1,Virág Horváth,F_JR_WPC,Hungary,77.3,,,,,,50,55,-57.5,55,,,,,,,55,82.5,F,,1992,Raw,B
1,Viktória Spodniaková,F_TR_2_WPC,Slovakia,87,,,,,,55,65,-70,65,,,,,,,65,90,F,,1997,Raw,B
1,Marek Herák,M_TR_3_WPC,Slovakia,54.1,,,,,,100,110,120,120,,,,,,,120,56,M,,1995,Raw,B
1,Zsolt Molnár,M_OR_WPC,Hungary,56.9,,,,,,87.5,-92.5,-92.5,87.5,,,,,,,87.5,60,M,,1982,Raw,B
1,Jozef Podolinský,M_TR_3_WPC,Slovakia,61.3,,,,,,95,100,-105,100,,,,,,,100,67.5,M,,1995,Raw,B
1,János Tukszár Tamás,M_OR_WPC,Hungary,62.9,,,,,,70,80,85,85,,,,,,,85,67.5,M,,1989,Raw,B
1,Zsolt Karlik,M_MR_1_WPC,Hungary,66.2,,,,,,130,135,140,140,-148,,,,,,140,67.5,M,,1972,Raw,B
1,Antoni Kaliňski,M_MR_5_WPC,Poland,67.5,,,,,,97.5,103,105,105,,,,,,,105,67.5,M,,1953,Raw,B
1,Tomáš Gazdik,M_OR_WPC,Slovakia,73.6,,,,,,145,155,160,160,,,,,,,160,75,M,,1983,Raw,B
1,György Fonyódi,M_MR_7_WPC,Hungary,70.4,,,,,,72.5,77.5,80,80,,,,,,,80,75,M,,1943,Raw,B
1,Miroslav Adamove,M_TR_2_WPC,Slovakia,79.1,,,,,,145,155,162.5,162.5,,,,,,,162.5,82.5,M,,1997,Raw,B
1,Gabriel Kováč,M_TR_3_WPC,Slovakia,76.9,,,,,,170,180,-190,180,,,,,,,180,82.5,M,,1995,Raw,B
1,Mateusz Gajewicz,M_JR_WPC,Poland,82.5,,,,,,185,190,-195,190,,,,,,,190,82.5,M,,1993,Raw,B
2,Dániel Égei,M_JR_WPC,Hungary,77.3,,,,,,155,162.5,167.5,167.5,,,,,,,167.5,82.5,M,,1992,Raw,B
1,Kamil Agasafar Gafarov,M_OR_WPC,Azerbaijan,82.4,,,,,,175,185,-200,185,,,,,,,185,82.5,M,,1984,Raw,B
2,László Patyi,M_OR_WPC,Hungary,81.4,,,,,,170,177.5,-185,177.5,,,,,,,177.5,82.5,M,,1989,Raw,B
3,Adrian Truong,M_OR_WPC,Slovakia,82.4,,,,,,150,-165,170,170,,,,,,,170,82.5,M,,1984,Raw,B
4,Michal Kozák,M_OR_WPC,Slovakia,77.1,,,,,,140,152.5,-160,152.5,,,,,,,152.5,82.5,M,,1987,Raw,B
1,Attila Nyikos-Kiss,M_MR_1_WPC,Hungary,82.1,,,,,,115,120,-125,120,,,,,,,120,82.5,M,,1970,Raw,B
1,Adolf Hainzl,M_MR_5_WPC,Austria,82.5,,,,,,105,-110,-110,105,,,,,,,105,82.5,M,,1953,Raw,B
1,Ladislav Kollár,M_MR_7_WPC,Slovakia,80.2,,,,,,117.5,125,-128,125,,,,,,,125,82.5,M,,1943,Raw,B
1,Tomáš Dobiáš,M_TR_2_WPC,Slovakia,82.8,,,,,,140,-150,-150,140,,,,,,,140,90,M,,1997,Raw,B
1,Máté Salamon,M_TR_3_WPC,Hungary,87.4,,,,,,150,155,-160,155,,,,,,,155,90,M,,1995,Raw,B
2,Tomasz Wawrzyczek,M_TR_3_WPC,Poland,90,,,,,,140,145,-152.5,145,,,,,,,145,90,M,,1996,Raw,B
3,Balazs Luptak,M_TR_3_WPC,Hungary,89.2,,,,,,135,142.5,-150,142.5,,,,,,,142.5,90,M,,1996,Raw,B
1,Balázs Budai,M_OR_WPC,Hungary,87.5,,,,,,190,197.5,-202.5,197.5,,,,,,,197.5,90,M,,1979,Raw,B
2,Márk Kurucz,M_JR_WPC,Hungary,87.6,,,,,,165,172.5,-180,172.5,,,,,,,172.5,90,M,,1993,Raw,B
3,Norbert Olah,M_TR_2_WPC,Slovakia,88.5,,,,,,130,142.5,150,150,,,,,,,150,90,M,,1997,Raw,B
4,Kamil Babiš,M_JR_WPC,Czechia,87.9,,,,,,140,142.5,-150,142.5,,,,,,,142.5,90,M,,1991,Raw,B
1,Dmitriy Petrov,M_OR_WPC,Russia,87.5,,,,,,160,170,-177.5,170,,,,,,,170,90,M,Дмитрий Петров,1986,Raw,B
1,László Kupcsik,M_MR_2_WPC,Hungary,89.5,,,,,,200,220.5,225,225,,,,,,,225,90,M,,1967,Raw,B
1,Adrian Angyal,M_MR_1_WPC,Slovakia,87.7,,,,,,150,160,-170,160,,,,,,,160,90,M,,1971,Raw,B
2,Dénes Bodnár,M_MR_1_WPC,Hungary,86.6,,,,,,110,125,-130,125,,,,,,,125,90,M,,1974,Raw,B
1,Jozef Völgyák,M_MR_5_WPC,Slovakia,87,,,,,,140,145,150,150,,,,,,,150,90,M,,1951,Raw,B
1,Valērijs Petrovs,M_MR_6_WPC,Latvia,88.8,,,,,,120,130,135,135,,,,,,,135,90,M,,1946,Raw,B
1,István Réz,M_MR_7_WPC,Hungary,84.1,,,,,,115,120,,120,,,,,,,120,90,M,,1943,Raw,B
1,Dominik Gabriel,M_TR_2_WPC,Slovakia,95,,,,,,-85,85,-95,85,,,,,,,85,100,M,,1998,Raw,B
1,Július Mertvík,M_TR_3_WPC,Slovakia,91,,,,,,135,145,152.5,152.5,,,,,,,152.5,100,M,,1996,Raw,B
1,Alexandar Pelovski,M_JR_WPC,Bulgaria,99.8,,,,,,185,195,-202.5,195,,,,,,,195,100,M,,1991,Raw,B
2,Adam Csaki,M_JR_WPC,Hungary,100,,,,,,175,190,-205,190,,,,,,,190,100,M,,1993,Raw,B
1,Róbert Svanczár,M_OR_WPC,Slovakia,97.7,,,,,,170,180,185,185,,,,,,,185,100,M,,1985,Raw,B
2,Štefan Remiáš,M_OR_WPC,Slovakia,95.2,,,,,,-170,170,180,180,,,,,,,180,100,M,,1982,Raw,B
1,Marek Bouchal,M_OR_WPC,Czechia,96.9,,,,,,170,177.5,-182.5,177.5,,,,,,,177.5,100,M,,1984,Raw,B
1,József Sztanke,M_MR_5_WPC,Hungary,93.5,,,,,,155,165,-170,165,,,,,,,165,100,M,,1954,Raw,B
1,Gábor Katona,M_JR_WPC,Hungary,105,,,,,,250,261,-265,261,,,,,,,261,110,M,,1991,Raw,B
1,Gábor Katona,M_OR_WPC,Hungary,105,,,,,,250,261,-265,261,,,,,,,261,110,M,,1991,Raw,B
2,Ákos Oláh,M_OR_WPC,Hungary,102,,,,,,220,230,240,240,,,,,,,240,110,M,,1989,Raw,B
3,Patrik Bodnár,M_OR_WPC,Slovakia,108.8,,,,,,175,185,195,195,,,,,,,195,110,M,,1985,Raw,B
4,Aleksandr Kovalenko,M_OR_WPC,Russia,110,,,,,,190,195,-200,195,,,,,,,195,110,M,Александр Коваленко,1984,Raw,B
5,Ismayil Ganjali,M_OR_WPC,Azerbaijan,105.5,,,,,,175,-185,,175,,,,,,,175,110,M,,1976,Raw,B
6,Ján Hodermarszki,M_OR_WPC,Slovakia,108.5,,,,,,-160,165,-175,165,,,,,,,165,110,M,,1977,Raw,B
1,Gábor Tóth,M_MR_1_WPC,Hungary,104.8,,,,,,165,175,185,185,,,,,,,185,110,M,,1970,Raw,B
1,László Kasza,M_MR_7_WPC,Hungary,100.5,,,,,,130,140,145,145,-156,,,,,,145,110,M,,1941,Raw,B
1,Slavomír Struhár,M_JR_WPC,Slovakia,121.8,,,,,,175,190,200,200,,,,,,,200,125,M,,1991,Raw,B
1,Norbert Stranszki,M_OR_WPC,Hungary,123.8,,,,,,230,240,250,250,,,,,,,250,125,M,,1986,Raw,B
2,Łukasz Toczylowski,M_OR_WPC,Italy,123.5,,,,,,210,220,-240,220,,,,,,,220,125,M,,1985,Raw,B
3,Jan Stevove,M_OR_WPC,Slovakia,116,,,,,,200,-210,,200,,,,,,,200,125,M,,1980,Raw,B
1,Tamás Szabó,M_MR_1_WPC,Hungary,120.9,,,,,,190,200,-207.5,200,,,,,,,200,125,M,,1971,Raw,B
1,Jozef Péter,M_MR_5_WPC,Slovakia,119.7,,,,,,160,-167.5,-170,160,,,,,,,160,125,M,,1950,Raw,B
2,Dušan Svorcan,M_MR_5_WPC,Serbia,113.7,,,,,,120,-127.5,,120,,,,,,,120,125,M,,1952,Raw,B
1,László Mészáros,M_OR_WPC,Hungary,131,,,,,,280,290,300,300,,,,,,,300,140,M,,1968,Raw,B
2,Adam Švehla,M_OR_WPC,Czechia,138,,,,,,220,-230,-230,220,,,,,,,220,140,M,,1981,Raw,B
3,Miloš Šnajdr,M_OR_WPC,Slovakia,127.1,,,,,,205,215,-222.5,215,,,,,,,215,140,M,,1977,Raw,B
1,Erik Susztay,M_MR_1_WPC,Slovakia,127,,,,,,200,210,220,220,,,,,,,220,140,M,,1972,Raw,B
1,László Mészáros,M_MR_2_WPC,Hungary,131,,,,,,280,290,300,300,,,,,,,300,140,M,,1968,Raw,B
1,Ján Orosz,M_MR_3_WPC,Slovakia,128,,,,,,190,210,220,220,,,,,,,220,140,M,,1964,Raw,B
1,Ferenc Tóth,M_MR_5_WPC,Hungary,126.9,,,,,,120,125,130,130,,,,,,,130,140,M,,1953,Raw,B
1,Andrejs Mūrnieks,M_OR_WPC,Latvia,144.2,,,,,,280,-291,-291,280,,,,,,,280,140+,M,,1980,Raw,B
1,Zsolt Tóth,M_MR_2_WPC,Hungary,140.1,,,,,,185,200,210,210,,,,,,,210,140+,M,,1967,Raw,B
1,János Szabó Ozor,M_OR_WPC,Hungary,159,,,,,,180,190,-200,190,,,,,,,190,140+,M,,1972,Raw,B
1,Miroslava Nagajdová,F_JEM_WPC,Slovakia,59.9,,,,,,70,75,80,80,,,,,,,80,60,F,,1992,Multi-ply,B
DQ,Dagmar Liptáková,F_OEM_WPC,Slovakia,61.5,,,,,,-130,-130,-130,,,,,,,,,67.5,F,,1976,Multi-ply,B
1,Rita Nagy,F_MEM_1_WPC,Hungary,65.2,,,,,,130,135,140,140,,,,,,,140,67.5,F,,1974,Multi-ply,B
1,Júlia Kostúrová,F_OEM_WPC,Slovakia,79,,,,,,160,170,180,180,-191,,,,,,180,82.5,F,,1989,Multi-ply,B
1,Viktória Spodniaková,F_TEM_2_WPC,Slovakia,86.8,,,,,,65,-75,-75,65,,,,,,,65,90,F,,1997,Multi-ply,B
1,Zdenka Hudíková,F_OEM_WPC,Slovakia,82.8,,,,,,120,130,-140,130,,,,,,,130,90,F,,1980,Multi-ply,B
1,Alina Moustafa,F_OEM_WPC,Poland,116.5,,,,,,-60,60,,60,,,,,,,60,90+,F,,1985,Multi-ply,B
1,Marek Herák,M_TEM_3_WPC,Slovakia,54.5,,,,,,150,160,170,170,180,,,,,,170,56,M,,1995,Multi-ply,B
1,Miroslav Adamove,M_TEM_2_WPC,Slovakia,79.7,,,,,,200,220,235,235,,,,,,,235,82.5,M,,1997,Multi-ply,B
1,Gabriel Kováč,M_TEM_3_WPC,Slovakia,77.1,,,,,,240,255,262.5,262.5,-270,,,,,,262.5,82.5,M,,1995,Multi-ply,B
1,Gabriel Kováč,M_OEM_WPC,Slovakia,77.1,,,,,,240,255,262.5,262.5,,,,,,,262.5,82.5,M,,1995,Multi-ply,B
2,Kamil Agasafar Gafarov,M_OEM_WPC,Azerbaijan,82.4,,,,,,220,237.5,-247.5,237.5,,,,,,,237.5,82.5,M,,1984,Multi-ply,B
3,Filip Stanko,M_OEM_WPC,Slovakia,81.6,,,,,,235,-245,-245,235,,,,,,,235,82.5,M,,1990,Multi-ply,B
1,Miroslav Čaba,M_JEM_WPC,Slovakia,88.3,,,,,,220,240,252.5,252.5,,,,,,,252.5,90,M,,1993,Multi-ply,B
2,Radomir Kvasnička,M_JEM_WPC,Slovakia,87.5,,,,,,-160,165,170,170,,,,,,,170,90,M,,1993,Multi-ply,B
1,Jozef Völgyák,M_MEM_5_WPC,Slovakia,87,,,,,,160,170,-175,170,,,,,,,170,90,M,,1951,Multi-ply,B
1,Valērijs Petrovs,M_MEM_6_WPC,Latvia,89.6,,,,,,150,-160,-165,150,,,,,,,150,90,M,,1946,Multi-ply,B
1,Máté Szilágyi,M_JEM_WPC,Hungary,93.7,,,,,,-290,300,-310.5,300,-310.5,,,,,,300,100,M,,1991,Multi-ply,B
1,Kiavash Yousefi,M_OEM_WPC,Spain,99.9,,,,,,235,247.5,-257.5,247.5,,,,,,,247.5,100,M,,1974,Multi-ply,B
2,Ismayil Quliyev,M_OEM_WPC,Azerbaijan,94.2,,,,,,210,220,-247.5,220,,,,,,,220,100,M,,1978,Multi-ply,B
3,Róbert Csetényi,M_OEM_WPC,Hungary,96.3,,,,,,210,-220,-232.5,210,,,,,,,210,100,M,,1976,Multi-ply,B
1,Kiavash Yousefi,M_MEM_1_WPC,Spain,99.9,,,,,,235,247.5,-257.5,247.5,,,,,,,247.5,100,M,,1974,Multi-ply,B
1,Peter Sakala,M_TEM_3_WPC,Slovakia,101.4,,,,,,170,180,185,185,,,,,,,185,110,M,,1996,Multi-ply,B
1,Richárd Budai,M_JEM_WPC,Hungary,109.4,,,,,,310,322.5,-330,322.5,,,,,,,322.5,110,M,,1993,Multi-ply,B
1,Ibrahim Ibrahimov,M_OEM_WPC,Azerbaijan,109.8,,,,,,300,310,-320,310,,,,,,,310,110,M,,1981,Multi-ply,B
2,Grzegorz Wałga,M_OEM_WPC,Poland,108.2,,,,,,290,300,-320,300,,,,,,,300,110,M,,1987,Multi-ply,B
3,Andrej Smutný,M_OEM_WPC,Slovakia,108.6,,,,,,280,-300,-302.5,280,,,,,,,280,110,M,,1977,Multi-ply,B
DQ,Jamal Ahmedzade,M_OEM_WPC,Azerbaijan,105,,,,,,,,,,,,,,,,,110,M,,1984,Multi-ply,B
1,Rafał Balner Sebastjan,M_MEM_1_WPC,Poland,104.8,,,,,,220,230,245,245,,,,,,,245,110,M,,1973,Multi-ply,B
2,Marián Milý,M_MEM_1_WPC,Slovakia,101.5,,,,,,220,-240,-240,220,,,,,,,220,110,M,,1973,Multi-ply,B
1,János Csatári,M_MEM_4_WPC,Hungary,103.5,,,,,,150,,,150,,,,,,,150,110,M,,1956,Multi-ply,B
1,Zoltán Csepregi,M_OEM_WPC,Hungary,116.6,,,,,,380,390,400,400,,,,,,,400,125,M,,1975,Multi-ply,B
2,Petr Bolf,M_OEM_WPC,Czechia,113.7,,,,,,320,327.5,-335,327.5,,,,,,,327.5,125,M,,1987,Multi-ply,B
3,Łukasz Toczylowski,M_OEM_WPC,Italy,123.5,,,,,,280,-310,-310,280,,,,,,,280,125,M,,1985,Multi-ply,B
4,Štefan Lazar,M_OEM_WPC,Czechia,116.1,,,,,,230,245,-255,245,,,,,,,245,125,M,,1978,Multi-ply,B
5,Vlastimil Pól,M_OEM_WPC,Czechia,111.2,,,,,,210,-220,-220,210,,,,,,,210,125,M,,1987,Multi-ply,B
DQ,Roman Szanyi,M_OEM_WPC,Slovakia,116.9,,,,,,-270,-270,-270,,,,,,,,,125,M,,1984,Multi-ply,B
DQ,Sándor Vörös,M_OEM_WPC,Slovakia,124.9,,,,,,-310,-320,-320,,,,,,,,,125,M,,1975,Multi-ply,B
1,Ladislav Maszay,M_MEM_1_WPC,Slovakia,124.3,,,,,,240,250,-260,250,,,,,,,250,125,M,,1970,Multi-ply,B
DQ,Ferenc Balázs,M_MEM_1_WPC,Hungary,112.4,,,,,,-310,-310,-310,,,,,,,,,125,M,,1970,Multi-ply,B
1,Béla Kling,M_MEM_2_WPC,Hungary,116.8,,,,,,-220,220,-235,220,,,,,,,220,125,M,,1968,Multi-ply,B
1,Karol Repiský,M_MEM_3_WPC,Slovakia,117,,,,,,215,230,-240,230,,,,,,,230,125,M,,1964,Multi-ply,B
1,Jozef Péter,M_MEM_5_WPC,Slovakia,121,,,,,,180,-195,-195,180,,,,,,,180,125,M,,1950,Multi-ply,B
1,József Funtík Peter,M_OEM_WPC,Slovakia,129.9,,,,,,300,320,,320,,,,,,,320,140,M,,1978,Multi-ply,B
1,Péter Mihály,M_OEM_WPC,Slovakia,150.2,,,,,,320,-350,350,350,,,,,,,350,140+,M,,1958,Multi-ply,B
2,Milan Husar,M_OEM_WPC,Slovakia,151.8,,,,,,220,240,-250,240,,,,,,,240,140+,M,,1990,Multi-ply,B
1,Péter Mihály,M_MEM_4_WPC,Slovakia,150.2,,,,,,320,-350,350,350,,,,,,,350,140+,M,,1958,Multi-ply,B
1,Kiss Katalin Schindlerné,F_MR_1_WPC,Hungary,69.7,,,,,,,,,,,130,145,152.5,152.5,,152.5,75,F,,1970,Raw,D
1,Mirtill Lachmann,F_JR_WPC,Hungary,78.2,,,,,,,,,,,-150,160,165,165,,165,82.5,F,,1991,Raw,D
1,Viktória Spodniaková,F_TR_2_WPC,Slovakia,86.7,,,,,,,,,,,110,115,125,125,130,125,90,F,,1997,Raw,D
1,Huba Hablicsek,M_TR_2_WPC,Hungary,53.2,,,,,,,,,,,105,115,125,125,,125,56,M,,1998,Raw,D
1,Ondrej Oláh,M_JR_WPC,Slovakia,58.6,,,,,,,,,,,150,165,-170,165,,165,60,M,,1991,Raw,D
1,Norbert Olah,M_TR_2_WPC,Slovakia,62.9,,,,,,,,,,,-190,190,-200,190,,190,67.5,M,,1997,Raw,D
1,Jakub Chabada,M_TR_2_WPC,Slovakia,67.2,,,,,,,,,,,150,175,181,181,182.5,181,67.5,M,,1997,Raw,D
1,Gabriel Bari,M_JR_WPC,Slovakia,61.5,,,,,,,,,,,-160,-160,160,160,,160,67.5,M,,1994,Raw,D
1,Daniel Horvath,M_TR_3_WPC,Slovakia,72.2,,,,,,,,,,,210,-215,-215,210,,210,75,M,,1995,Raw,D
1,Josef Gabrhel,M_MR_4_WPC,Slovakia,74.8,,,,,,,,,,,145,157.5,165,165,,165,75,M,,1955,Raw,D
1,Gabriel Kováč,M_TR_3_WPC,Slovakia,79.5,,,,,,,,,,,200,220,240,240,250,240,82.5,M,,1995,Raw,D
1,Michal Kozák,M_OR_WPC,Slovakia,78.3,,,,,,,,,,,210,230,-242.5,230,,230,82.5,M,,1987,Raw,D
2,Mubariz Mirzayev,M_OR_WPC,Azerbaijan,77,,,,,,,,,,,100,,,100,,100,82.5,M,,1978,Raw,D
1,Peter Herák,M_MR_3_WPC,Slovakia,82.5,,,,,,,,,,,200,217.5,-222.5,217.5,,217.5,82.5,M,,1960,Raw,D
1,Jaroslav Tomanec,M_MR_7_WPC,Czechia,82.2,,,,,,,,,,,140,147.52,152.5,152.5,155,152.5,82.5,M,,1943,Raw,D
1,Csaba Keszthelyi,M_MR_9_WPC,Hungary,78.9,,,,,,,,,,,135,145,150,150,,150,82.5,M,,1933,Raw,D
1,Igor Hano,M_JR_WPC,Slovakia,83,,,,,,,,,,,220,250,260,260,-267.5,260,90,M,,1994,Raw,D
1,Erwin Loritsch,M_MR_3_WPC,Austria,88.4,,,,,,,,,,,210,-220,-220,210,,210,90,M,,1961,Raw,D
1,Ladislav Pasecký,M_MR_4_WPC,Czechia,88.9,,,,,,,,,,,200,220,235,235,,235,90,M,,1959,Raw,D
1,Stefan Sochaňski,M_MR_6_WPC,Poland,88.7,,,,,,,,,,,180,200,-230.5,200,,200,90,M,,1948,Raw,D
1,Vladimir Tuček,M_OR_WPC,Czechia,95.4,,,,,,,,,,,290,-305,-305,290,,290,100,M,,1982,Raw,D
2,Szabolcs Balázs,M_OR_WPC,Hungary,96.4,,,,,,,,,,,260,270,-292.5,270,,270,100,M,,1988,Raw,D
3,Gergely Horvath,M_OR_WPC,Hungary,98.7,,,,,,,,,,,230,245,250,250,,250,100,M,,1977,Raw,D
4,Lajos Bán,M_OR_WPC,Hungary,99.3,,,,,,,,,,,230,-240,-247.5,230,,230,100,M,,1976,Raw,D
1,László Kiss,M_MR_2_WPC,Hungary,97.6,,,,,,,,,,,240,260,270,270,,270,100,M,,1969,Raw,D
1,Alexandar Pelovski,M_JR_WPC,Bulgaria,102.7,,,,,,,,,,,230,250,-292.5,250,,250,110,M,,1991,Raw,D
2,Ádám Böszörmenyi,M_JR_WPC,Hungary,104.8,,,,,,,,,,,195,205,215,215,,215,110,M,,1992,Raw,D
1,Zsolt Hetyési,M_OR_WPC,Hungary,104.6,,,,,,,,,,,260,275,285,285,,285,110,M,,1985,Raw,D
2,Zoltán Farkaš,M_OR_WPC,Slovakia,100.8,,,,,,,,,,,230,245,255,255,,255,110,M,,1988,Raw,D
1,Norbert Hablicsek,M_MR_1_WPC,Hungary,103.5,,,,,,,,,,,230,240,,240,,240,110,M,,1974,Raw,D
1,Václav Mareš,M_MR_2_WPC,Czechia,109.8,,,,,,,,,,,250,270,285,285,,285,110,M,,1968,Raw,D
1,Tahir Mardanov Vusal,M_OR_WPC,Azerbaijan,124.3,,,,,,,,,,,330,-362.5,-362.5,330,,330,125,M,,1985,Raw,D
1,Karol Repiský,M_MR_3_WPC,Slovakia,116.4,,,,,,,,,,,240,260,-270,260,,260,125,M,,1964,Raw,D
1,Antonio Russo,M_MR_4_WPC,Italy,114.6,,,,,,,,,,,300,320,-330,320,,320,125,M,,1958,Raw,D
1,Árpád Nick,M_MR_5_WPC,Hungary,121.2,,,,,,,,,,,200,210,,210,,210,125,M,,1953,Raw,D
1,Denis Makeev,M_OR_WPC,Russia,129.9,,,,,,,,,,,280,300,-305,300,,300,140,M,Денис Макеев,1983,Raw,D
1,Elnara Kulieva,F_OEM_WPC,Azerbaijan,47.9,,,,,,,,,,,110,,-140,110,,110,48,F,,1986,Multi-ply,D
1,Branislav Hanuliak,M_JEM_WPC,Slovakia,75.9,,,,,,,,,,,200,222.5,230,230,,230,82.5,M,,1992,Multi-ply,D
1,Igor Hano,M_JEM_WPC,Slovakia,83,,,,,,,,,,,230,260,-270,260,,260,90,M,,1994,Multi-ply,D
1,Stefan Sochaňski,M_MEM_6_WPC,Poland,88.7,,,,,,,,,,,202.5,227.5,240,240,,240,90,M,,1948,Multi-ply,D
1,Jakub Kubik,M_TEM_3_WPC,Slovakia,92.5,,,,,,,,,,,210,230,-240,230,,230,100,M,,1996,Multi-ply,D
1,Tamás Molnár,M_OEM_WPC,Hungary,98.3,,,,,,,,,,,305,320,-330,320,,320,100,M,,1975,Multi-ply,D
2,Ján Šiska,M_OEM_WPC,Slovakia,99.9,,,,,,,,,,,200,230,-245,230,,230,100,M,,1980,Multi-ply,D
1,Peter Sakala,M_TEM_3_WPC,Slovakia,101.9,,,,,,,,,,,230,-240,242.5,242.5,,242.5,110,M,,1996,Multi-ply,D
1,Jiří Tkadlčík,M_OEM_WPC,Czechia,103.5,,,,,,,,,,,310,327.5,,327.5,,327.5,110,M,,1990,Multi-ply,D
2,Miroslav Klus,M_OEM_WPC,Czechia,101,,,,,,,,,,,230,240,255,255,,255,110,M,,1984,Multi-ply,D
3,Jamal Ahmedzade,M_OEM_WPC,Azerbaijan,104.5,,,,,,,,,,,200,232.5,255,255,,255,110,M,,1984,Multi-ply,D
1,Norbert Hablicsek,M_MEM_1_WPC,Hungary,103.5,,,,,,,,,,,230,250,260,260,,260,110,M,,1974,Multi-ply,D
1,Václav Mareš,M_MEM_2_WPC,Czechia,109.8,,,,,,,,,,,250,290,-300,290,,290,110,M,,1968,Multi-ply,D
1,Karol Repiský,M_MEM_3_WPC,Slovakia,116.4,,,,,,,,,,,250,265,-270,265,,265,125,M,,1964,Multi-ply,D
1,Antonio Russo,M_MEM_4_WPC,Italy,114.6,,,,,,,,,,,310,330,340,340,,340,125,M,,1958,Multi-ply,D
