WeightClassKg,BodyweightKg,Name,Age,Sex,Division,Team,Squat1Kg,Squat2Kg,Squat3Kg,Best3SquatKg,Bench1Kg,Bench2Kg,Bench3Kg,Best3BenchKg,Deadlift1Kg,Deadlift2Kg,Deadlift3Kg,Best3DeadliftKg,TotalKg,Place,Event,Equipment
60,60,Rhonda Leavitt,51,F,F-O,New Lebanon Fitness -- NY,,,,,75,-77.5,77.5,77.5,,,,,77.5,1,B,Single-ply
90+,127.8,Tammi Smith,40,F,F-M1,World Gym -- Port St. Lucie,,,,,107.5,-112.5,112.5,112.5,,,,,112.5,1,B,Single-ply
56,56,Anton Kraft,46,M,M-M1,Copenhagen PL - Denmark,,,,,205,-210,210,210,,,,,210,1,B,Single-ply
82.5,81.2,Mosbeh Alkinany,40,M,M-O,Gold's Gym -- Coral Gables,,,,,200,210,215,215,,,,,215,1,B,Single-ply
82.5,80.8,Joe Hill,33,M,M-O,Pitbull Gym -- Tampa,,,,,185,-197.5,-197.5,185,,,,,185,2,B,Single-ply
82.5,81.2,Mosbeh Alkinany,40,M,M-M1,Gold's Gym -- Coral Gables,,,,,200,210,215,215,,,,,215,1,B,Single-ply
100,91.4,Jeff Gerardo,35,M,M-O,Fit Forever -- Bonita Springs,,,,,-242.5,-250,-250,,,,,,,DQ,B,Single-ply
100,90.2,George Walker,62,M,M-M3,Quest Fitness -- Sebring,,,,,147.5,165,170,170,,,,,170,1,B,Single-ply
100,99.25,Clint Poore,35,M,M-O,Danville Fitness -- Danville,,,,,192.5,-245,-247.5,192.5,,,,,192.5,2,B,Single-ply
100,93.9,Devon Rodgers,15,M,M-T1,Montverde Academy -- Orlando,,,,,90,95,100,100,,,,,100,1,B,Single-ply
100,99.6,Chris Edwards,23,M,M-Jr,Fit Forever -- Bonita Springs,,,,,-175,-175,-175,,,,,,,DQ,B,Single-ply
100,98.8,Mike Ferrantelli,42,M,M-M1,Pasco Powerlifting Team,,,,,-250,-250,250,250,,,,,250,1,B,Single-ply
100,99.5,Al Speech,64,M,M-M3,LA Fitness -- Bonita Springs,,,,,137.5,147.5,160,160,,,,,160,1,B,Single-ply
100,96.4,Ray Urgo,65,M,M-M3,Gold's Gym -- Port St. Lucie,,,,,132.5,137.5,142.5,142.5,,,,,142.5,2,B,Single-ply
100,98.8,Mike Ferrantelli,42,M,M-PFM,Pasco Powerlifting Team,,,,,-250,-250,250,250,,,,,250,1,B,Single-ply
110,109.73,Peter Maynard,43,M,M-O,Gold's Gym -- Coral Gables,,,,,-217.5,-227.5,235,235,,,,,235,1,B,Single-ply
110,100.38,JT Hall,38,M,M-O,Lexington Athletic Club,,,,,205,-262.5,-262.5,205,,,,,205,2,B,Single-ply
110,109.73,Peter Maynard,43,M,M-M1,Gold's Gym -- Coral Gables,,,,,-217.5,-227.5,235,235,,,,,235,1,B,Single-ply
125,111.7,Eric Pauli,49,M,M-M1,Montverde Academy -- Orlando,,,,,137.5,142.5,-145,142.5,,,,,142.5,2,B,Single-ply
125,116.1,Damon Sansom,35,M,M-PFM,Beach Street Gym -- Daytona Beach,,,,,155,167.5,-182.5,167.5,,,,,167.5,1,B,Single-ply
125,,Tom Harrier,53,M,M-PFM,,,,,,,,,,,,,,,DQ,B,Single-ply
125+,137.9,Nassar Hassan,20,M,M-O,Gold's Gym -- Coral Gables,,,,,210,-220,-220,210,,,,,210,1,B,Single-ply
125+,137.9,Nassar Hassan,20,M,M-Jr,Gold's Gym -- Coral Gables,,,,,210,-220,-220,210,,,,,210,1,B,Single-ply
125+,151.6,James Myers,42,M,M-M1,Beach Street Gym -- Daytona Beach,,,,,182.5,190,-197.5,190,,,,,190,1,B,Single-ply
48,47.5,April Shumaker,43,F,F-M1,World Gym -- Port St. Lucie,112.5,122.5,-125,122.5,-95,95,-98,95,130,140,145,145,362.5,1,SBD,Single-ply
60,60,Rhonda Leavitt,51,F,F-M2,New Lebanon Fitness -- NY,-82.5,82.5,92.5,92.5,75,-77.5,77.5,77.5,92.5,97.5,102.5,102.5,272.5,1,SBD,Single-ply
67.5,63.1,Cathy Cox,33,F,F-O,YMCA -- Boyton Beach,30,35,40,40,37.5,42.5,-50,42.5,95,105,115,115,197.5,1,SBD,Single-ply
67.5,65.4,Stephanie Mayo,17,F,F-V,Alta High School -- Alta,92.5,97.5,-105,97.5,-60,60,-62.5,60,110,112.5,117.5,117.5,275,1,SBD,Single-ply
67.5,65.4,Stephanie Mayo,17,F,F-T2,Alta High School -- Alta,92.5,97.5,-105,97.5,-60,60,-62.5,60,110,112.5,117.5,117.5,275,1,SBD,Single-ply
82.5,80.1,Taylar Stallings,23,F,F-O,Pit Bull Gym -- Tampa,182.5,-197.5,-197.5,182.5,110,-120,-120,110,-205,-227.5,-227.5,,,DQ,SBD,Single-ply
90+,127.8,Tammi Smith,40,F,F-O,World Gym -- Port St. Lucie,165,-172.5,172.5,172.5,107.5,-112.5,112.5,112.5,152.5,160,170,170,455,1,SBD,Single-ply
90+,104.8,Kimberly Easton,38,F,F-O,Club Boom -- Daytona Beach,-82.5,-82.5,82.5,82.5,52.5,-57.5,-60,52.5,110,115,120,120,255,2,SBD,Single-ply
90+,127.8,Tammi Smith,40,F,F-M1,World Gym -- Port St. Lucie,165,-172.5,172.5,172.5,107.5,-112.5,112.5,112.5,152.5,160,170,170,455,1,SBD,Single-ply
90+,104.8,Kimberly Easton,38,F,F-PFM,Club Boom -- Daytona Beach,-82.5,-82.5,82.5,82.5,52.5,-57.5,-60,52.5,110,115,120,120,255,1,SBD,Single-ply
52,44.1,Joel Bell #2,14,M,M-T1,On The Go Fitness -- Tampa,47.5,-65,65,65,25,37.5,-40,37.5,92.5,-102.5,,92.5,195,1,SBD,Single-ply
60,59.7,Hennis Washington,38,M,M-O,Pit Bull Gym -- Tampa,230,250,257.5,257.5,140,150,,150,220,240,-250,240,647.5,1,SBD,Single-ply
60,59.2,Steve Soukup,47,M,M-M1,Willie's Powerhouse -- Merritt Island,112.5,-125,125,125,80,-85,-85,80,125,137.5,-142.5,137.5,342.5,1,SBD,Single-ply
60,58.8,Steve Smith,75,M,M-M4,YMCA -- Oviedo,50,55,60,60,72.5,75,-77.5,75,110,115,120,120,255,1,SBD,Single-ply
67.5,65.3,Joseph Meyerhoffer,21,M,M-Jr,Platinum Gym -- Sanford,-170,170,-190,170,125,-142.5,142.5,142.5,185,190,-207.5,190,502.5,1,SBD,Single-ply
67.5,67.5,Duane Garber,19,M,M-SO,Special Olympics -- Lakeland,,,,,57.5,60,62.5,62.5,102.5,110,117.5,117.5,180,1,BD,Single-ply
75,74.7,Edil DeLeon,41,M,M-O,FIU -- Miami,200,215,-222.5,215,-130,-140,140,140,235,250,-265,250,605,1,SBD,Single-ply
75,,Jordan Burke,20,M,M-C,,,,,,,,,,,,,,,DQ,SBD,Single-ply
82.5,81.1,John Edwards,14,M,M-T1,Fitness On the Go -- Tampa,82.5,92.5,97.5,97.5,60,-65,-65,60,92.5,-132.5,-132.5,92.5,250,1,SBD,Single-ply
90,87.5,Chris Rousch,32,M,M-O,Lifestyles Fitness -- Winter Garden,-175,-175,-175,,137.5,-145,-145,137.5,195,202.5,,202.5,,DQ,SBD,Single-ply
90,85.3,Darian Barnett,15,M,M-T1,Evolved Athletics -- Ft. Myers,175,187.5,192.5,192.5,110,115,-120,115,200,202.5,205,205,512.5,1,SBD,Single-ply
100,90.2,Kenneth Mitchell #1,46,M,M-M1,Body Factory -- Ocala,-240,-250,250,250,-150,-150,-160,,-262.5,-262.5,,,,DQ,SBD,Single-ply
100,97.4,Matt Otero,29,M,M-O,Just Lift Fitness -- Margate,260,275,285,285,175,187.5,-192.5,187.5,260,277.5,287.5,287.5,760,1,SBD,Single-ply
100,91.2,Ronnie Getz,36,M,M-O,Sun Bathe Fitness -- Melbourne,-227.5,-227.5,-240,,125,-160,-167.5,125,227.5,247.5,,247.5,,DQ,SBD,Single-ply
100,93.9,Edward Lundy,56,M,M-M2,NAS -- Jacksonville,-102.5,102.5,-142.5,102.5,-105,105,-107.5,105,160,165,182.5,182.5,390,1,SBD,Single-ply
100,,Bill Beekley,49,M,M-M1,,,,,,,,,,,,,,,DQ,SBD,Single-ply
100,,Darryl Meloche,65,M,M-M3,,,,,,,,,,,,,,,DQ,SBD,Single-ply
110,100.4,Caleb Walker,23,M,M-PFM,NAS -- Jacksonville,-227.5,237.5,-245,237.5,-182.5,-182.5,-182.5,,-227.5,-227.5,,,,DQ,SBD,Single-ply
125,116.1,Damon Sansom,35,M,M-PFM,Beach Street Gym -- Daytona Beach,-177.5,177.5,192.5,192.5,155,167.5,-182.5,167.5,190,210,-227.5,210,570,1,SBD,Single-ply
125,,Tom Harrier,53,M,M-M2,,,,,,,,,,,,,,,DQ,SBD,Single-ply
125+,151.6,James Myers,42,M,M-O,Beach Street Gym -- Daytona Beach,235,250,265,265,182.5,190,-197.5,190,227.5,245,-262.5,245,700,1,SBD,Single-ply
125+,,Beau Moore #1,43,M,M-M1,,,,,,,,,,,,,,,DQ,SBD,Single-ply
